{
    "asset": {
        "generator": "COLLADA2GLTF",
        "version": "2.0"
    },
    "scenes": [
        {
            "nodes": [
                0
            ]
        }
    ],
    "scene": 0,
    "nodes": [
        {
            "children": [
                1
            ],
            "matrix": [
                1.0,
                0.0,
                0.0,
                0.0,
                0.0,
                0.0,
                -1.0,
                0.0,
                0.0,
                1.0,
                0.0,
                0.0,
                0.0,
                0.0,
                0.0,
                1.0
            ],
            "name": "Z_UP"
        },
        {
            "mesh": 0,
            "matrix": [
                1.0,
                0.0,
                0.0,
                0.0,
                0.0,
                0.6710886359214783,
                0.0,
                0.0,
                0.0,
                0.0,
                1.0,
                0.0,
                0.0,
                0.0,
                0.0,
                1.0
            ],
            "name": "triangle"
        }
    ],
    "meshes": [
        {
            "primitives": [
                {
                    "attributes": {
                        "NORMAL": 1,
                        "POSITION": 2
                    },
                    "indices": 0,
                    "mode": 4,
                    "material": 0
                }
            ],
            "name": "triangle"
        }
    ],
    "accessors": [
        {
            "bufferView": 0,
            "byteOffset": 0,
            "componentType": 5123,
            "count": 3,
            "max": [
                2
            ],
            "min": [
                0
            ],
            "type": "SCALAR"
        },
        {
            "bufferView": 1,
            "byteOffset": 0,
            "componentType": 5126,
            "count": 3,
            "max": [
                0.0,
                -1.0,
                0.0
            ],
            "min": [
                0.0,
                -1.0,
                0.0
            ],
            "type": "VEC3"
        },
        {
            "bufferView": 1,
            "byteOffset": 36,
            "componentType": 5126,
            "count": 3,
            "max": [
                0.4999997913837433,
                1.490119956315539e-7,
                0.6666666865348816
            ],
            "min": [
                -0.4999997019767761,
                0.0,
                -0.3333333134651184
            ],
            "type": "VEC3"
        }
    ],
    "materials": [
        {
            "extensions": {
                "KHR_materials_common": {
                    "doubleSided": true,
                    "technique": "PHONG",
                    "transparent": false,
                    "values": {
                        "ambient": [
                            0.0,
                            0.0,
                            0.0,
                            1.0
                        ],
                        "diffuse": [
                            0.6399999856948853,
                            0.6399999856948853,
                            0.6399999856948853,
                            1.0
                        ],
                        "emission": [
                            0.0,
                            0.0,
                            0.0,
                            1.0
                        ],
                        "specular": [
                            0.5,
                            0.5,
                            0.5,
                            1.0
                        ],
                        "shininess": [
                            50.0
                        ]
                    },
                    "name": "box_mat-effect"
                }
            },
            "name": "box_mat-effect"
        }
    ],
    "bufferViews": [
        {
            "buffer": 0,
            "byteOffset": 72,
            "byteLength": 6,
            "target": 34963
        },
        {
            "buffer": 0,
            "byteOffset": 0,
            "byteLength": 72,
            "byteStride": 12,
            "target": 34962
        }
    ],
    "buffers": [
        {
            "byteLength": 78,
            "uri": "data:application/octet-stream;base64,AAAAAAAAgL8AAAAAAAAAAAAAgL8AAAAAAAAAAAAAgL8AAAAA+f//PgAAAACqqqq+bVUltAAAAACrqio/9v//vhsAIDSqqqq+AAABAAIA"
        }
    ],
    "extensionsRequired": [
        "KHR_materials_common"
    ],
    "extensionsUsed": [
        "KHR_materials_common"
    ]
}
