<?xml version="1.0" encoding="utf-8"?>
<COLLADA xmlns="http://www.collada.org/2005/11/COLLADASchema" version="1.4.1">
  <asset>
    <contributor>
      <author>Blender User</author>
      <authoring_tool>Blender 2.76.0 commit date:2015-10-11, commit time:06:55, hash:48f7dd6</authoring_tool>
    </contributor>
    <created>2015-11-21T20:31:54</created>
    <modified>2015-11-21T20:31:54</modified>
    <unit name="meter" meter="1"/>
    <up_axis>Z_UP</up_axis>
  </asset>
  <library_images/>
  <library_effects>
    <effect id="box_mat-effect">
      <profile_COMMON>
        <technique sid="common">
          <phong>
            <emission>
              <color sid="emission">0 0 0 1</color>
            </emission>
            <ambient>
              <color sid="ambient">0 0 0 1</color>
            </ambient>
            <diffuse>
              <color sid="diffuse">0.64 0.64 0.64 1</color>
            </diffuse>
            <specular>
              <color sid="specular">0.5 0.5 0.5 1</color>
            </specular>
            <shininess>
              <float sid="shininess">50</float>
            </shininess>
            <index_of_refraction>
              <float sid="index_of_refraction">1</float>
            </index_of_refraction>
          </phong>
        </technique>
      </profile_COMMON>
    </effect>
  </library_effects>
  <library_materials>
    <material id="box_mat-material" name="box_mat">
      <instance_effect url="#box_mat-effect"/>
    </material>
  </library_materials>
  <library_geometries>
    <geometry id="square-mesh" name="square">
      <mesh>
        <source id="square-mesh-positions">
          <float_array id="square-mesh-positions-array" count="12">-1 0 -1 1 0 -1 -1 0 1 1 0 1</float_array>
          <technique_common>
            <accessor source="#square-mesh-positions-array" count="4" stride="3">
              <param name="X" type="float"/>
              <param name="Y" type="float"/>
              <param name="Z" type="float"/>
            </accessor>
          </technique_common>
        </source>
        <source id="square-mesh-normals">
          <float_array id="square-mesh-normals-array" count="3">0 -1 0</float_array>
          <technique_common>
            <accessor source="#square-mesh-normals-array" count="1" stride="3">
              <param name="X" type="float"/>
              <param name="Y" type="float"/>
              <param name="Z" type="float"/>
            </accessor>
          </technique_common>
        </source>
        <vertices id="square-mesh-vertices">
          <input semantic="POSITION" source="#square-mesh-positions"/>
        </vertices>
        <polylist material="box_mat-material" count="2">
          <input semantic="VERTEX" source="#square-mesh-vertices" offset="0"/>
          <input semantic="NORMAL" source="#square-mesh-normals" offset="1"/>
          <vcount>3 3 </vcount>
          <p>1 0 3 0 2 0 0 0 1 0 2 0</p>
        </polylist>
      </mesh>
    </geometry>
  </library_geometries>
  <library_controllers/>
  <library_visual_scenes>
    <visual_scene id="Scene" name="Scene">
      <node id="square" name="square" type="NODE">
        <matrix sid="transform">1 0 0 0 0 1 0 0 0 0 1 0 0 0 0 1</matrix>
        <instance_geometry url="#square-mesh" name="square">
          <bind_material>
            <technique_common>
              <instance_material symbol="box_mat-material" target="#box_mat-material"/>
            </technique_common>
          </bind_material>
        </instance_geometry>
      </node>
    </visual_scene>
  </library_visual_scenes>
  <scene>
    <instance_visual_scene url="#Scene"/>
  </scene>
</COLLADA>